An accidental side effect of text mining
…
## # A tibble: 1,265 x 2
## # Groups:   bigram [1,265]
##    bigram                      n
##    <chr>                   <int>
##  1 attention goal              2
##  2 concept audience            2
##  3 levels importance           2
##  4 mandel johnson              2
##  5 mental activity             2
##  6 social proof                2
##  7 thousand dollars            2
##  8 twenty thousand             2
##  9 twenty thousand dollars     2
## 10 writing session             2
## # ... with 1,255 more rows## [1] "Made to Stick: Why some ideas take hold and others come unstuck"## # A tibble: 6,376 x 2
## # Groups:   bigram [6,376]
##    bigram                      n
##    <chr>                   <int>
##  1 curse knowledge             7
##  2 guessing machines           6
##  3 people care                 6
##  4 goodyear tires              5
##  5 knowledge gaps              5
…
