Introducing the schrute Package: the Entire Transcripts From The Office
…
如果我们想分析整个数据集，我们需要先删除一些停用词:

stop_words <- tidytext::stop_words tidy.token.mydata <- token.mydata %>% dplyr::anti_join(stop_words, by = "word")
然后看看最常见的单词是什么:

tidy.token.mydata %>% 
dplyr::count(word, sort = TRUE) 
#> # A tibble: 19,225 x 2 
#>  word      n 
#> <chr>    <int> 
#> 1 yeah    2895 
#> 2 hey     2189 
#> 3 michael 2054 
#> 4 dwight  1540 
#> 5 uh      1433 
#> 6 gonna   1365 
#> 7 jim     1345 
#> 8 pam     1168 
#> 9 time    1129 
#> 10 guys   933 
#> # ... with 19,215 more rowstidy.token.mydata %>% 
…
